timestamps_UTC;vf;te_in;te_out;te_out_row1;te_out_row2;te_out_row3;te_out_row4;rd_ghi;rd_bhi;rd_gti;rd_bti;rd_dti;rd_dni;te_amb;ve_wind;rh_amb;is_shadowed
foo;what;the;hell;should;i;write;here;in ;this;strangish;file;have;a;very;nice;day;yo
bar;what;the;heck;should;i;write;here;in ;this;strangish;file;have;a;very;good;day;ya
