timestamps_UTC;vf;te_out;te_out_row1;te_out_row2;te_out_row3;te_out_row4;rd_ghi;rd_bhi;rd_gti;rd_bti;rd_dti;rd_dni;te_amb;ve_wind;rh_amb;is_shadowed
2017-05-01 00:01:00;8.33E-07;319.5910876;317.7825079;318.729419;317.6648166;316.9944729;-2.949027038;0;0;0;0;0;281.7806667;0.183333333;0.73655;1
2017-05-01 00:02:00;7.25E-07;319.5710916;317.7385053;318.686791;317.6088807;316.9578357;-2.949027038;0;0;0;0;0;281.8131667;0.121666667;0.73355;1
2017-05-01 00:03:00;7.11E-07;319.5365529;317.6841687;318.7111023;317.5437886;316.9305243;-2.949027038;0;0;0;0;0;281.7913333;0.268333333;0.7357;1
