timestamps_UTC;vf;te_in;te_out;te_out_row1;te_out_row2;te_out_row3;te_out_row4;rd_ghi;rd_bhi;rd_gti;rd_bti;rd_dti;rd_dni;te_amb;ve_wind;rh_amb;is_shadowed
2017-05-01 00:02:00;7.25E-07;280.2993744;319.5710916;317.7385053;318.686791;317.6088807;316.9578357;-2.949027038;0;0;0;0;0;281.8131667;0.121666667;0.73355;1
2017-05-01 00:03:00;7.11E-07;280.3023753;319.5365529;317.6841687;318.7111023;317.5437886;316.9305243;-2.949027038;0;0;0;0;0;281.7913333;0.268333333;0.7357;1
2017-05-01 00:04:00;8.57E-07;280.3035423;319.496065;317.6406662;318.6544869;317.5119917;316.9082089;-2.949027038;0;0;0;0;0;281.7425;0.286666667;0.736966667;1
2017-05-01 00:05:00;5.54E-07;280.3120448;319.4673104;317.5943301;318.6215168;317.5427897;316.8652435;-2.949027038;0;0;0;0;0;281.687;0.175;0.752583333;1
2017-05-01 00:06:00;5.14E-07;280.3138787;319.4749122;317.5569945;318.5673991;317.4856885;316.8294389;-2.949027038;0;0;0;0;0;281.6561667;0.22;0.754383333;1
2017-05-01 00:07:00;3.67E-07;280.3218811;319.413602;317.582496;318.5146136;317.4935128;316.8067905;-2.949027038;0;0;0;0;0;281.6783333;0.04;0.745616667;1
