timestamps_UTC;vf;te_in;te_out;te_out_row1;te_out_row2;te_out_row3;te_out_row4;rd_ghi;rd_bhi;rd_gti;rd_bti;rd_dti;rd_dni;te_amb;ve_wind;rh_amb
01.05.2017  00:00:00+02;5.84E-07;273.7896243;319.1050678;315.0668463;316.944203;314.680734;313.2015231;-4.915045063;0;-1;0;-1;-1;275.8276667;0.32;0.7814
01.05.2017  00:01:00+02;5.85E-07;273.780455;319.0052528;315.0178434;316.9561921;314.743662;313.1014369;-4.915045063;0;-1;0;-1;-1;275.9346667;0.281666667;0.787016667
01.05.2017  00:02:00+01;6.72E-07;273.7744532;319.0307023;314.9906751;316.8897523;314.6809005;313.0651328;-4.915045063;0;-1;0;-1;-1;276.009;0.408333333;0.7872
01.05.2017  00:03:00+02;6.76E-07;273.7701186;318.9556758;314.9806745;316.8188166;314.6762392;313.0396532;-4.915045063;0;-1;0;-1;-1;275.8578333;0.303333333;0.7746
01.05.2017  00:04:00+01;5.95E-07;273.7611159;318.9434468;314.8873357;316.7655315;314.6769051;312.997687;-4.915045063;0;-1;0;-1;-1;275.7636667;0.143333333;0.777233333
