timestamps_UTC;vf;te_in;te_out;te_out_row1;te_out_row2;te_out_row3;te_out_row4;rd_ghi;rd_bhi;rd_gti;rd_bti;rd_dti;rd_dni;te_amb;ve_wind;rh_amb;is_shadowed
01.05.2017  00:00:00+02;7.25E-07;280.2923724;319.6062912;317.7486726;318.7249231;317.6844608;317.0199524;-2.949027038;0;0;0;0;0;281.7573333;0.235;0.742216667;1
01.05.2017  00:01:00+01;8.33E-07;280.2923724;319.5910876;317.7825079;318.729419;317.6648166;316.9944729;-2.949027038;0;0;0;0;0;281.7806667;0.183333333;0.73655;1
01.05.2017  00:02:00;7.25E-07;280.2993744;319.5710916;317.7385053;318.686791;317.6088807;316.9578357;-2.949027038;0;0;0;0;0;281.8131667;0.121666667;0.73355;1
01.05.2017  00:03:00+02;7.11E-07;280.3023753;319.5365529;317.6841687;318.7111023;317.5437886;316.9305243;-2.949027038;0;0;0;0;0;281.7913333;0.268333333;0.7357;1
01.05.2017  00:04:00;8.57E-07;280.3035423;319.496065;317.6406662;318.6544869;317.5119917;316.9082089;-2.949027038;0;0;0;0;0;281.7425;0.286666667;0.736966667;1
